{
  "statusCode": 200,
  "message": "SUCCESS",
  "cartContent": {
    "customerId": "ecruz@avio.com",
    "cartTotal": 9.99,
    "items": [
      {
        "itemId": 10,
        "quantity": 1,
        "price": 2.35
      },
      {
        "itemId": 11,
        "quantity": 2,
        "price": 1.20
      },
      {
        "itemId": 12,
        "quantity": 2,
        "price": 2.62
      }
    ]
  }
}