{
 "statusCode": 202,
 "customerId" : "abc@whatever.com",
 "message": "PARTIAL_ORDER",
 "ordered": {
   "orderedTotal" : 9.99,
   "orderedProducts" : [
     {
       "productId" : 10,
       "productName" : "Go Pro Camera",
       "quantity" : 1,
       "price" : 2.35
     },
     {
       "productId" : 11,
       "productName" : "Go Pro Helmet",
       "quantity" : 2,
       "price" : 1.20
     },
     {
       "productId" : 12,
       "productName" : "256GB Micro SD",
       "quantity" : 2,
       "price" : 2.62
     }
   ]
 },
 "backOrderedProducts": {
   "backOrderedTotal": 2.50, 
   "backOrderedProducts" : [
     {
       "productId" : 13,
       "productName" : "Go Pro Delux Camera",
       "quantity" : 1,
       "price" : 2.50
     }
   ]
 }
}
